<?xml version="1.0" encoding="UTF-8" standalone="no"?><svg xmlns="http://www.w3.org/2000/svg" xmlns:xlink="http://www.w3.org/1999/xlink" contentScriptType="application/ecmascript" contentStyleType="text/css" height="642px" preserveAspectRatio="none" style="width:484px;height:642px;" version="1.1" viewBox="0 0 484 642"
    width="484px" zoomAndPan="magnify"><defs><filter height="300%" id="f1dsap0hyu7wuo" width="300%" x="-1" y="-1"><feGaussianBlur result="blurOut" stdDeviation="2.0"/><feColorMatrix in="blurOut" result="blurOut2" type="matrix" values="0 0 0 0 0 0 0 0 0 0 0 0 0 0 0 0 0 0 .4 0"/><feOffset dx="4.0" dy="4.0" in="blurOut2" result="blurOut3"/><feBlend in="SourceGraphic" in2="blurOut3" mode="normal"/></filter></defs><g><text fill="#000000" font-family="sans-serif" font-size="18" lengthAdjust="spacingAndGlyphs" textLength="110" x="186" y="28.6855">App Life Cicle</text><text fill="#000000" font-family="sans-serif" font-size="18" lengthAdjust="spacingAndGlyphs" textLength="0" x="243.5" y="51.3262"/><ellipse cx="192.5" cy="65.2813" fill="#000000" filter="url(#f1dsap0hyu7wuo)" rx="10" ry="10" style="stroke: none; stroke-width: 1.0;"/><rect fill="#FEFECE" filter="url(#f1dsap0hyu7wuo)" height="35.0938" rx="12.5" ry="12.5" style="stroke: #A80036; stroke-width: 1.5;" width="81" x="152" y="95.2813"/><text fill="#000000" font-family="sans-serif" font-size="12" lengthAdjust="spacingAndGlyphs" textLength="61" x="162" y="117.7383">MainActivity</text><rect fill="#FEFECE" filter="url(#f1dsap0hyu7wuo)" height="35.0938" rx="12.5" ry="12.5" style="stroke: #A80036; stroke-width: 1.5;" width="99" x="143" y="150.375"/><text fill="#000000" font-family="sans-serif" font-size="12" lengthAdjust="spacingAndGlyphs" textLength="79" x="153" y="172.832">Leitura de Tag</text><polygon fill="#FEFECE" filter="url(#f1dsap0hyu7wuo)" points="156,249.4688,229,249.4688,241,261.4688,229,273.4688,156,273.4688,144,261.4688,156,249.4688" style="stroke: #A80036; stroke-width: 1.5;"/><text fill="#000000" font-family="sans-serif" font-size="11" lengthAdjust="spacingAndGlyphs" textLength="73" x="156" y="265.9697">User fez login?</text><text fill="#000000" font-family="sans-serif" font-size="11" lengthAdjust="spacingAndGlyphs" textLength="18" x="126" y="259.0518">não</text><text fill="#000000" font-family="sans-serif" font-size="11" lengthAdjust="spacingAndGlyphs" textLength="16" x="241" y="259.0518">sim</text><rect fill="#FEFECE" filter="url(#f1dsap0hyu7wuo)" height="35.0938" rx="12.5" ry="12.5" style="stroke: #A80036; stroke-width: 1.5;" width="86" x="46" y="283.4688"/><text fill="#000000" font-family="sans-serif" font-size="12" lengthAdjust="spacingAndGlyphs" textLength="66" x="56" y="305.9258">LoginActivity</text><rect fill="#FEFECE" filter="url(#f1dsap0hyu7wuo)" height="50.1875" rx="12.5" ry="12.5" style="stroke: #A80036; stroke-width: 1.5;" width="130" x="231" y="283.4688"/><text fill="#000000" font-family="sans-serif" font-size="12" lengthAdjust="spacingAndGlyphs" textLength="50" x="271" y="305.9258">Consulta</text><text fill="#000000" font-family="sans-serif" font-size="12" lengthAdjust="spacingAndGlyphs" textLength="110" x="241" y="321.0195">Shared Preferences</text><polygon fill="#FEFECE" filter="url(#f1dsap0hyu7wuo)" points="255.5,353.6563,336.5,353.6563,348.5,365.6563,336.5,377.6563,255.5,377.6563,243.5,365.6563,255.5,353.6563" style="stroke: #A80036; stroke-width: 1.5;"/><text fill="#000000" font-family="sans-serif" font-size="11" lengthAdjust="spacingAndGlyphs" textLength="81" x="255.5" y="370.1572">Viagem iniciada?</text><text fill="#000000" font-family="sans-serif" font-size="11" lengthAdjust="spacingAndGlyphs" textLength="18" x="225.5" y="363.2393">não</text><text fill="#000000" font-family="sans-serif" font-size="11" lengthAdjust="spacingAndGlyphs" textLength="16" x="348.5" y="363.2393">sim</text><rect fill="#FEFECE" filter="url(#f1dsap0hyu7wuo)" height="35.0938" rx="12.5" ry="12.5" style="stroke: #A80036; stroke-width: 1.5;" width="126" x="162" y="387.6563"/><text fill="#000000" font-family="sans-serif" font-size="12" lengthAdjust="spacingAndGlyphs" textLength="106" x="172" y="410.1133">InicioViagemActivity</text><rect fill="#FEFECE" filter="url(#f1dsap0hyu7wuo)" height="35.0938" rx="12.5" ry="12.5" style="stroke: #A80036; stroke-width: 1.5;" width="118" x="308" y="387.6563"/><text fill="#000000" font-family="sans-serif" font-size="12" lengthAdjust="spacingAndGlyphs" textLength="98" x="318" y="410.1133">FimViagemActivity</text><polygon fill="#FEFECE" filter="url(#f1dsap0hyu7wuo)" points="296,428.75,308,440.75,296,452.75,284,440.75,296,428.75" style="stroke: #A80036; stroke-width: 1.5;"/><rect fill="#FEFECE" filter="url(#f1dsap0hyu7wuo)" height="50.1875" rx="12.5" ry="12.5" style="stroke: #A80036; stroke-width: 1.5;" width="130" x="231" y="472.75"/><text fill="#000000" font-family="sans-serif" font-size="12" lengthAdjust="spacingAndGlyphs" textLength="91" x="250.5" y="495.207">Grava dados em</text><text fill="#000000" font-family="sans-serif" font-size="12" lengthAdjust="spacingAndGlyphs" textLength="110" x="241" y="510.3008">Shared Preferences</text><rect fill="#FEFECE" filter="url(#f1dsap0hyu7wuo)" height="35.0938" rx="12.5" ry="12.5" style="stroke: #A80036; stroke-width: 1.5;" width="100" x="246" y="542.9375"/><text fill="#000000" font-family="sans-serif" font-size="12" lengthAdjust="spacingAndGlyphs" textLength="80" x="256" y="565.3945">UploadService</text><polygon fill="#FEFECE" filter="url(#f1dsap0hyu7wuo)" points="192.5,584.0313,204.5,596.0313,192.5,608.0313,180.5,596.0313,192.5,584.0313" style="stroke: #A80036; stroke-width: 1.5;"/><polygon fill="#FEFECE" filter="url(#f1dsap0hyu7wuo)" points="150,205.4688,235,205.4688,247,217.4688,235,229.4688,150,229.4688,138,217.4688,150,205.4688" style="stroke: #A80036; stroke-width: 1.5;"/><text fill="#000000" font-family="sans-serif" font-size="11" lengthAdjust="spacingAndGlyphs" textLength="85" x="150" y="221.9697">Processa Tag/QR</text><line style="stroke: #A80036; stroke-width: 1.5;" x1="192.5" x2="192.5" y1="75.2813" y2="95.2813"/><polygon fill="#A80036" points="188.5,85.2813,192.5,95.2813,196.5,85.2813,192.5,89.2813" style="stroke: #A80036; stroke-width: 1.0;"/><line style="stroke: #A80036; stroke-width: 1.5;" x1="192.5" x2="192.5" y1="130.375" y2="150.375"/><polygon fill="#A80036" points="188.5,140.375,192.5,150.375,196.5,140.375,192.5,144.375" style="stroke: #A80036; stroke-width: 1.0;"/><line style="stroke: #A80036; stroke-width: 1.5;" x1="243.5" x2="225" y1="365.6563" y2="365.6563"/><line style="stroke: #A80036; stroke-width: 1.5;" x1="225" x2="225" y1="365.6563" y2="387.6563"/><polygon fill="#A80036" points="221,377.6563,225,387.6563,229,377.6563,225,381.6563" style="stroke: #A80036; stroke-width: 1.0;"/><line style="stroke: #A80036; stroke-width: 1.5;" x1="348.5" x2="367" y1="365.6563" y2="365.6563"/><line style="stroke: #A80036; stroke-width: 1.5;" x1="367" x2="367" y1="365.6563" y2="387.6563"/><polygon fill="#A80036" points="363,377.6563,367,387.6563,371,377.6563,367,381.6563" style="stroke: #A80036; stroke-width: 1.0;"/><line style="stroke: #A80036; stroke-width: 1.5;" x1="225" x2="225" y1="422.75" y2="440.75"/><line style="stroke: #A80036; stroke-width: 1.5;" x1="225" x2="284" y1="440.75" y2="440.75"/><polygon fill="#A80036" points="274,436.75,284,440.75,274,444.75,278,440.75" style="stroke: #A80036; stroke-width: 1.0;"/><line style="stroke: #A80036; stroke-width: 1.5;" x1="367" x2="367" y1="422.75" y2="440.75"/><line style="stroke: #A80036; stroke-width: 1.5;" x1="367" x2="308" y1="440.75" y2="440.75"/><polygon fill="#A80036" points="318,436.75,308,440.75,318,444.75,314,440.75" style="stroke: #A80036; stroke-width: 1.0;"/><line style="stroke: #A80036; stroke-width: 1.5;" x1="296" x2="296" y1="333.6563" y2="353.6563"/><polygon fill="#A80036" points="292,343.6563,296,353.6563,300,343.6563,296,347.6563" style="stroke: #A80036; stroke-width: 1.0;"/><line style="stroke: #A80036; stroke-width: 1.5;" x1="296" x2="296" y1="452.75" y2="472.75"/><polygon fill="#A80036" points="292,462.75,296,472.75,300,462.75,296,466.75" style="stroke: #A80036; stroke-width: 1.0;"/><line style="stroke: #A80036; stroke-width: 1.5;" x1="296" x2="296" y1="522.9375" y2="542.9375"/><polygon fill="#A80036" points="292,532.9375,296,542.9375,300,532.9375,296,536.9375" style="stroke: #A80036; stroke-width: 1.0;"/><line style="stroke: #A80036; stroke-width: 1.5;" x1="144" x2="89" y1="261.4688" y2="261.4688"/><line style="stroke: #A80036; stroke-width: 1.5;" x1="89" x2="89" y1="261.4688" y2="283.4688"/><polygon fill="#A80036" points="85,273.4688,89,283.4688,93,273.4688,89,277.4688" style="stroke: #A80036; stroke-width: 1.0;"/><line style="stroke: #A80036; stroke-width: 1.5;" x1="241" x2="296" y1="261.4688" y2="261.4688"/><line style="stroke: #A80036; stroke-width: 1.5;" x1="296" x2="296" y1="261.4688" y2="283.4688"/><polygon fill="#A80036" points="292,273.4688,296,283.4688,300,273.4688,296,277.4688" style="stroke: #A80036; stroke-width: 1.0;"/><line style="stroke: #A80036; stroke-width: 1.5;" x1="89" x2="89" y1="318.5625" y2="596.0313"/><line style="stroke: #A80036; stroke-width: 1.5;" x1="89" x2="180.5" y1="596.0313" y2="596.0313"/><polygon fill="#A80036" points="170.5,592.0313,180.5,596.0313,170.5,600.0313,174.5,596.0313" style="stroke: #A80036; stroke-width: 1.0;"/><line style="stroke: #A80036; stroke-width: 1.5;" x1="296" x2="296" y1="578.0313" y2="596.0313"/><line style="stroke: #A80036; stroke-width: 1.5;" x1="296" x2="204.5" y1="596.0313" y2="596.0313"/><polygon fill="#A80036" points="214.5,592.0313,204.5,596.0313,214.5,600.0313,210.5,596.0313" style="stroke: #A80036; stroke-width: 1.0;"/><line style="stroke: #A80036; stroke-width: 1.5;" x1="192.5" x2="192.5" y1="229.4688" y2="249.4688"/><polygon fill="#A80036" points="188.5,239.4688,192.5,249.4688,196.5,239.4688,192.5,243.4688" style="stroke: #A80036; stroke-width: 1.0;"/><line style="stroke: #A80036; stroke-width: 1.5;" x1="192.5" x2="192.5" y1="608.0313" y2="618.0313"/><line style="stroke: #A80036; stroke-width: 1.5;" x1="192.5" x2="458" y1="618.0313" y2="618.0313"/><polygon fill="#A80036" points="454,434.25,458,424.25,462,434.25,458,430.25" style="stroke: #A80036; stroke-width: 1.5;"/><line style="stroke: #A80036; stroke-width: 1.5;" x1="458" x2="458" y1="217.4688" y2="618.0313"/><line style="stroke: #A80036; stroke-width: 1.5;" x1="458" x2="247" y1="217.4688" y2="217.4688"/><polygon fill="#A80036" points="257,213.4688,247,217.4688,257,221.4688,253,217.4688" style="stroke: #A80036; stroke-width: 1.0;"/><line style="stroke: #FFFFFF; stroke-width: 1.5;" x1="138" x2="24" y1="217.4688" y2="217.4688"/><polygon fill="#FFFFFF" points="20,420.25,24,430.25,28,420.25,24,424.25" style="stroke: #FFFFFF; stroke-width: 1.5;"/><line style="stroke: #FFFFFF; stroke-width: 1.5;" x1="24" x2="24" y1="217.4688" y2="630.0313"/><line style="stroke: #FFFFFF; stroke-width: 1.5;" x1="24" x2="192.5" y1="630.0313" y2="630.0313"/><line style="stroke: #A80036; stroke-width: 1.5;" x1="192.5" x2="192.5" y1="185.4688" y2="205.4688"/><polygon fill="#A80036" points="188.5,195.4688,192.5,205.4688,196.5,195.4688,192.5,199.4688" style="stroke: #A80036; stroke-width: 1.0;"/><!--
@startuml
skinparam defaultTextAlignment center
title App Life Cicle\n

start

:MainActivity;
:Leitura de Tag;
while (Processa Tag/QR)
    if (User fez login?) then (não)
        :LoginActivity;

    else (sim)
        :Consulta\nShared Preferences;
        if (Viagem iniciada?) then (não)
                :InicioViagemActivity;

            else (sim)
                :FimViagemActivity;

        endif
        :Grava dados em\nShared Preferences;
        :UploadService;
    endif

endwhile
-[#transparent]->

@enduml

PlantUML version 1.2017.15(Mon Jul 03 17:45:34 BST 2017)
(GPL source distribution)
Java Runtime: Java(TM) SE Runtime Environment
JVM: Java HotSpot(TM) 64-Bit Server VM
Java Version: 1.8.0_151-b12
Operating System: Windows 10
OS Version: 10.0
Default Encoding: Cp1252
Language: en
Country: US
--></g></svg>